<?xml version="1.0" encoding="UTF-8" standalone="no"?>
<svg
   xmlns:dc="http://purl.org/dc/elements/1.1/"
   xmlns:cc="http://creativecommons.org/ns#"
   xmlns:rdf="http://www.w3.org/1999/02/22-rdf-syntax-ns#"
   xmlns:svg="http://www.w3.org/2000/svg"
   xmlns="http://www.w3.org/2000/svg"
   xmlns:sodipodi="http://sodipodi.sourceforge.net/DTD/sodipodi-0.dtd"
   xmlns:inkscape="http://www.inkscape.org/namespaces/inkscape"
   class="lds-comets"
   width="70px"
   height="70px"
   viewBox="0 0 100 100"
   preserveAspectRatio="xMidYMid"
   id="svg2"
   version="1.1"
   inkscape:version="0.91 r13725"
   sodipodi:docname="index.comet-spinner.svg">
  <metadata
     id="metadata16">
    <rdf:RDF>
      <cc:Work
         rdf:about="">
        <dc:format>image/svg+xml</dc:format>
        <dc:type
           rdf:resource="http://purl.org/dc/dcmitype/StillImage" />
      </cc:Work>
    </rdf:RDF>
  </metadata>
  <defs
     id="defs14" />
  <sodipodi:namedview
     pagecolor="#ffffff"
     bordercolor="#666666"
     borderopacity="1"
     objecttolerance="10"
     gridtolerance="10"
     guidetolerance="10"
     inkscape:pageopacity="0"
     inkscape:pageshadow="2"
     inkscape:window-width="1920"
     inkscape:window-height="1018"
     id="namedview12"
     showgrid="false"
     inkscape:zoom="3.3714286"
     inkscape:cx="1.5505746"
     inkscape:cy="35"
     inkscape:window-x="-8"
     inkscape:window-y="-8"
     inkscape:window-maximized="1"
     inkscape:current-layer="svg2" />
  <g
     id="g4147">
    <path
       d="M 17.931674,85.120257 C -2.2609892,65.104604 0.66191322,30.04998 25.636289,15.404485 13.672893,24.115808 6.8788798,38.827755 8.6755323,53.518298 c 0.9133215,7.757309 4.1653327,15.089731 9.1390517,21.048936 1.877373,2.237291 6.71042,4.998026 6.439054,8.211491 -0.152825,3.136343 -4.130385,4.543118 -6.321964,2.341532 z"
       id="path6"
       inkscape:connector-curvature="0"
       style="fill:#c83771" />
    <path
       d="m 93.8795,60.003972 c 0.632704,-3.954704 -4.757345,-6.015619 -6.913945,-2.587926 -0.959759,1.636723 -0.94691,3.990408 -1.515341,5.709969 -0.532725,2.033765 -1.379657,4.103236 -2.205879,6.074874 -2.570784,5.384335 -6.253427,10.226663 -10.944382,14.037824 -12.051947,9.612522 -28.725555,11.602692 -42.737682,5.365681 11.946224,6.821857 26.572492,7.260349 39.18643,1.75321 C 74.050925,88.004644 78.875416,84.528398 82.825132,80.3559 87.847434,74.979425 92.717637,67.42422 93.8795,60.003972 Z"
       id="path8"
       inkscape:connector-curvature="0"
       style="fill:#87de87" />
    <path
       d="M 89.762025,38.893633 C 84.577677,18.477401 65.593979,4.3395371 44.30155,5.4542063 41.005248,5.5741685 28.93761,6.0861545 32.103218,12.378128 c 1.459622,2.762156 4.076813,1.987359 6.49834,1.171144 3.287021,-1.04187 6.707578,-1.748825 10.122422,-1.94591 8.45713,-0.356319 17.256309,2.01738 24.301644,6.881869 10.277363,6.979671 16.352933,17.874048 17.941072,30.169487 -0.119962,-3.296303 -0.358466,-6.515482 -1.204671,-9.761085 z"
       id="path10"
       inkscape:connector-curvature="0"
       style="fill:#3771c8" />
  </g>
  <path
     style="fill:#000000"
     d="m 79.609023,70.703069 c -0.745249,-0.88681 -0.902706,-1.085967 -0.902706,-1.14178 0,-0.03079 -0.09638,-0.178566 -0.214184,-0.328364 -0.302247,-0.384355 -0.321251,-0.411794 -0.417167,-0.602216 -0.04726,-0.09372 -0.07089,-0.186345 -0.05255,-0.205814 0.01834,-0.01947 -0.05846,-0.14221 -0.170713,-0.272748 -0.112249,-0.130552 -0.204029,-0.28518 -0.204029,-0.343612 0,-0.05844 -0.05255,-0.147121 -0.116927,-0.197062 -0.06425,-0.04995 -0.121355,-0.154907 -0.126944,-0.233239 -0.0049,-0.07833 -0.06412,-0.257282 -0.130132,-0.397661 -0.06609,-0.140378 -0.120126,-0.3186 -0.120126,-0.396041 0,-0.07744 -0.04763,-0.160237 -0.10585,-0.183977 -0.05822,-0.02374 -0.105848,-0.111473 -0.105848,-0.194965 0,-0.0835 -0.09674,-0.451188 -0.214984,-0.817097 -0.118279,-0.365909 -0.229495,-0.785701 -0.247231,-0.932867 -0.01772,-0.147175 -0.06573,-0.333986 -0.106587,-0.415154 -0.04087,-0.08116 -0.06682,-0.205298 -0.05773,-0.275857 0.0087,-0.07057 -0.02093,-0.313881 -0.0667,-0.540723 -0.04578,-0.226844 -0.0997,-0.766765 -0.119633,-1.199828 -0.02006,-0.433063 -0.04751,-0.931552 -0.06118,-1.107749 -0.01367,-0.176195 0.0025,-0.338531 0.03669,-0.360749 0.03396,-0.02232 0.02978,-0.103397 -0.0099,-0.181266 -0.04221,-0.08393 -0.0448,-0.158037 -0.0062,-0.183339 0.03558,-0.02336 0.04874,-0.185697 0.02916,-0.360752 -0.01944,-0.175055 -0.04529,-1.161911 -0.05735,-2.193014 -0.0123,-1.031103 -0.03791,-1.96489 -0.05748,-2.075079 -0.09293,-0.523033 -0.133037,-0.713784 -0.186601,-0.886994 -0.03188,-0.103104 -0.09895,-0.339326 -0.149162,-0.524924 -0.05009,-0.185598 -0.12415,-0.404943 -0.164471,-0.487431 -0.08025,-0.164195 -0.0917,-0.205462 -0.104739,-0.379369 -0.0049,-0.06431 -0.04136,-0.09555 -0.08111,-0.06941 -0.03975,0.02611 -0.06634,0.01968 -0.05895,-0.01432 0.02597,-0.120139 -0.102653,-0.514306 -0.231846,-0.710799 -0.072,-0.10948 -0.130847,-0.225112 -0.130847,-0.256967 0,-0.03186 -0.150858,-0.289643 -0.335233,-0.572879 -0.184373,-0.283235 -0.370065,-0.581296 -0.412637,-0.662357 -0.146724,-0.279336 -1.645273,-1.791186 -1.822212,-1.838369 -0.09748,-0.02599 -0.196436,-0.111411 -0.219847,-0.189798 -0.02339,-0.07838 -0.0832,-0.142525 -0.13274,-0.142525 -0.0496,0 -0.146972,-0.0667 -0.216401,-0.148207 -0.06941,-0.08151 -0.150009,-0.132595 -0.17908,-0.113517 -0.02905,0.01909 -0.13305,-0.03232 -0.231071,-0.114255 -0.09797,-0.08192 -0.212904,-0.14895 -0.255305,-0.14895 -0.04234,0 -0.07704,-0.03374 -0.07704,-0.07499 0,-0.04125 -0.04812,-0.07499 -0.106834,-0.07499 -0.05871,0 -0.161973,-0.02981 -0.229372,-0.06624 -0.06744,-0.03643 -0.201937,-0.100484 -0.298973,-0.14233 -0.09711,-0.04184 -0.296783,-0.132364 -0.443876,-0.201136 -0.382606,-0.178903 -0.960972,-0.353409 -1.027189,-0.309924 -0.03102,0.02038 -0.141481,-0.0099 -0.245434,-0.06714 -0.104005,-0.05731 -0.189027,-0.08519 -0.189027,-0.06197 0,0.02323 -0.04763,0 -0.105849,-0.05112 -0.07669,-0.06758 -0.105848,-0.06938 -0.105848,-0.0066 0,0.06068 -0.03865,0.06484 -0.128372,0.01381 -0.07065,-0.04015 -0.224819,-0.07007 -0.342704,-0.06652 -0.117911,0.0036 -0.248474,-0.01594 -0.290199,-0.04334 -0.04172,-0.0274 -0.09329,-0.01993 -0.114464,0.01661 -0.02128,0.03654 -0.15843,0.0441 -0.30482,0.0168 -0.358704,-0.06692 -9.140477,-0.04971 -9.243753,0.01811 -0.0448,0.02946 -0.10302,0.0165 -0.129382,-0.02874 -0.02634,-0.04526 -0.121602,-0.06262 -0.21171,-0.0386 -0.09009,0.02404 -0.244314,0.0112 -0.342668,-0.02853 -0.115079,-0.0465 -0.193912,-0.04633 -0.221149,7.24e-4 -0.04862,0.08361 -1.324292,0.07565 -1.453305,-0.0091 -0.04701,-0.03089 -0.158514,-0.02669 -0.247723,0.0093 -0.100924,0.04075 -0.178835,0.03689 -0.206257,-0.01027 -0.0272,-0.04679 -0.07545,-0.04938 -0.125997,-0.0067 -0.0464,0.03904 -1.026427,0.06502 -2.258851,0.05989 -1.19731,-0.005 -2.191563,0.01611 -2.209472,0.04689 -0.01785,0.03079 -0.13023,0.0024 -0.24963,-0.06331 -0.122466,-0.06731 -0.236067,-0.08946 -0.260647,-0.05085 -0.0256,0.04012 -1.875271,0.06631 -4.471374,0.06332 l -4.427816,-0.005 -0.07139,0.217408 c -0.111511,0.339879 -0.0896,0.495027 0.06978,0.495027 0.07766,0 0.141148,0.02911 0.141148,0.06468 0,0.03558 0.08739,0.05063 0.194073,0.03346 0.10671,-0.01718 0.241729,-0.02947 0.299945,-0.02732 0.05822,0.0022 0.375813,0.0021 0.705754,0 0.768327,-0.0051 0.674799,-0.0051 1.164484,7.24e-4 0.232893,0.0028 0.590181,-0.0053 0.793966,-0.01815 0.203783,-0.01281 0.370482,-0.0046 0.370433,0.01796 -3.7e-5,0.02269 0.166687,0.0337 0.370521,0.02447 0.427653,-0.01936 0.845484,-0.02266 2.170244,-0.0172 0.524025,0.0022 1.619697,0.0028 2.434831,0.0016 0.815135,-0.0013 2.228401,0.0078 3.140572,0.02017 1.726259,0.02348 1.879063,0.04839 2.505405,0.40855 0.116433,0.06695 0.219352,0.115313 0.228682,0.107461 0.09231,-0.07773 1.429834,1.182443 1.429834,1.347165 0,0.04524 0.05293,0.123372 0.117663,0.173645 0.06474,0.05028 0.128755,0.1688 0.142343,0.263392 0.01354,0.09458 0.07976,0.216396 0.147007,0.270681 0.06732,0.05427 0.09465,0.09976 0.0608,0.101071 -0.03384,0.0014 -0.03003,0.04457 0.0087,0.09612 0.08074,0.108137 0.203131,0.501692 0.27394,0.881123 0.07286,0.39025 0.07668,1.673541 0.0049,1.77771 -0.03409,0.04975 -0.04148,0.125615 -0.01648,0.168599 0.02498,0.04299 -0.0037,0.153195 -0.06449,0.244937 -0.06043,0.09172 -0.10991,0.249271 -0.10991,0.350078 0,0.100799 -0.02043,0.16155 -0.04542,0.134989 -0.02498,-0.02658 -0.150343,0.173186 -0.278519,0.443906 -0.128188,0.27071 -0.298284,0.552304 -0.378003,0.625764 -0.07976,0.07345 -0.145493,0.16334 -0.146195,0.199746 -0.0013,0.08307 -0.529933,0.553623 -0.621602,0.553623 -0.0373,0 -0.08395,0.04497 -0.10388,0.09992 -0.03902,0.10815 -0.716793,0.496257 -0.922681,0.528358 -0.06941,0.01084 -0.147523,0.05107 -0.17353,0.08941 -0.06302,0.09292 -0.384811,0.127167 -0.331357,0.03527 0.0229,-0.03944 -0.04271,-0.02518 -0.145837,0.03169 -0.103136,0.05686 -0.23123,0.08557 -0.284623,0.06381 -0.05342,-0.02178 -0.09711,-0.0064 -0.09711,0.03407 0,0.06281 -0.630748,0.113185 -1.093899,0.08738 -0.07766,-0.0043 -0.204668,-0.0069 -0.282308,-0.0057 -1.146945,0.01767 -2.248266,0.0029 -2.299443,-0.03058 -0.03569,-0.0234 -0.06474,-6.6e-5 -0.06474,0.05185 0,0.06626 -0.02215,0.07081 -0.07446,0.01527 -0.04517,-0.04796 -0.182183,-0.05823 -0.347762,-0.02606 -0.150294,0.02921 -0.418473,0.02967 -0.595954,0.001 -0.177493,-0.02863 -0.322704,-0.02473 -0.322704,0.0087 0,0.03337 -0.06351,0.03569 -0.141245,0.0051 -0.07766,-0.03054 -0.348478,-0.03704 -0.601765,-0.01446 -0.253273,0.02259 -0.505181,0.0145 -0.559792,-0.01798 -0.05465,-0.03248 -0.114957,-0.03201 -0.134219,0.001 -0.0192,0.03303 -0.156299,0.05127 -0.304646,0.04054 -0.14835,-0.01071 -0.722272,-0.01919 -1.275405,-0.01876 -0.553122,7.25e-4 -1.108902,-0.001 -1.23506,-0.0032 -0.126156,-0.0022 -0.388157,0 -0.582242,0.0042 -0.194071,0.0045 -0.448146,0.0066 -0.564592,0.0046 -0.719355,-0.01133 -0.845277,7.25e-4 -0.895272,0.08419 -0.04184,0.07002 -0.05563,0.07062 -0.05638,0.0024 -7.75e-4,-0.06538 -0.257901,-0.09126 -0.936195,-0.09429 -1.892086,-0.0084 -1.961391,-0.01219 -1.909846,-0.103575 0.03114,-0.05526 0.0087,-0.05231 -0.06142,0.0081 -0.0608,0.05227 -0.167327,0.07184 -0.236842,0.0435 -0.07102,-0.02894 -0.108803,-0.02129 -0.08628,0.01745 0.02352,0.04037 -0.198602,0.06161 -0.535374,0.05118 -0.516185,-0.01598 -1.86529,-0.02105 -2.516359,-0.0095 -0.135856,0.0024 -0.278764,-0.0017 -0.317583,-0.0092 -0.06683,-0.01296 -1.880909,-0.0174 -3.105285,-0.0076 -0.672891,0.0054 -1.201605,0.0056 -1.729089,7.24e-4 -0.213483,-0.002 -0.419912,-0.0018 -0.458732,0 -0.03877,0.0022 -0.308759,0.01048 -0.59988,0.01847 -0.291121,0.008 -0.552653,0.05055 -0.581159,0.09467 -0.0341,0.05268 -0.05219,0.04616 -0.05293,-0.01897 -7.76e-4,-0.07102 -0.106217,-0.09582 -0.371591,-0.08733 -0.203795,0.0066 -0.402286,0.0049 -0.441106,-0.0035 -0.03877,-0.0084 -0.09317,-0.01168 -0.120742,-0.0074 -0.120988,0.01907 -0.958719,0.01071 -1.167216,-0.01169 -0.126145,-0.01354 -0.229372,-7.25e-4 -0.229372,0.02929 0,0.06278 -0.186824,0.04362 -0.252216,-0.02586 -0.02449,-0.02606 -0.112741,-0.02231 -0.196128,0.0084 -0.08333,0.03064 -0.246812,0.04525 -0.363259,0.03249 -0.34658,-0.03801 -0.903247,-0.02693 -1.120385,0.02228 -0.132286,0.02999 -0.187081,0.01878 -0.157431,-0.0322 0.02991,-0.05149 -0.02129,-0.06014 -0.149962,-0.02532 -0.107448,0.02908 -0.290714,0.04431 -0.407173,0.03384 -0.116433,-0.01048 -0.338752,-0.01397 -0.494018,-0.0078 -0.155265,0.0062 -0.543374,0.01048 -0.862484,0.0095 -0.351848,-0.001 -0.563743,0.02652 -0.538425,0.07006 0.0229,0.03946 -0.0272,0.03261 -0.111388,-0.01528 -0.09009,-0.05122 -0.449303,-0.08432 -0.873056,-0.08043 -0.395985,0.0036 -0.775564,0.0043 -0.843492,0.0014 -0.06794,-0.0028 -0.614169,-0.001 -1.213864,0.0042 -0.599695,0.0051 -1.152804,-0.01169 -1.229114,-0.03742 -0.07631,-0.02574 -0.154281,-0.02011 -0.173248,0.0125 -0.01895,0.03261 -0.577417,0.05855 -1.241003,0.05763 -0.663573,-8.29e-4 -1.206505,0.02126 -1.206505,0.04922 0,0.02797 -0.07496,0.01323 -0.166687,-0.03274 -0.1498,-0.07511 -0.15993,-0.109543 -0.100065,-0.340106 0.03669,-0.141093 0.04972,-0.325101 0.02916,-0.408915 -0.02068,-0.08382 -0.0025,-0.22125 0.03963,-0.30541 0.05649,-0.112274 0.05563,-0.160628 -0.0037,-0.181601 -0.09933,-0.03518 -0.107081,-0.364831 -0.0099,-0.42852 0.03877,-0.02549 0.07052,-0.192601 0.07052,-0.371352 0,-0.238332 0.03237,-0.338217 0.121481,-0.374549 0.09846,-0.04017 0.103135,-0.06161 0.02462,-0.113222 -0.08012,-0.05259 -0.08221,-0.133381 -0.0123,-0.464648 0.04677,-0.220543 0.08517,-0.46185 0.08541,-0.536241 1.59e-4,-0.07439 0.04886,-0.155015 0.108064,-0.179163 0.07717,-0.03148 0.08419,-0.05934 0.02461,-0.0984 -0.06264,-0.04116 -0.05981,-0.09825 0.01231,-0.233276 0.05206,-0.09833 0.122588,-0.200311 0.156692,-0.226632 0.03409,-0.02632 0.04222,-0.08179 0.0181,-0.123267 -0.02412,-0.04148 -0.001,-0.188665 0.05109,-0.327088 0.05219,-0.138422 0.120372,-0.319168 0.151499,-0.401655 0.03114,-0.08249 0.06142,-0.183724 0.06732,-0.224968 0.02093,-0.144145 0.254136,-0.717453 0.320377,-0.787389 0.05735,-0.0606 0.198874,-0.39727 0.252094,-0.599913 0.02708,-0.103104 0.06881,-0.204346 0.09268,-0.224969 0.06671,-0.05762 0.360994,-0.513607 0.360994,-0.559379 0,-0.02229 0.05563,-0.104815 0.123511,-0.183374 0.167365,-0.19356 0.404897,-0.557663 0.405401,-0.621426 5.16e-4,-0.06832 0.503951,-0.770161 0.794038,-1.106991 0.12596,-0.146265 0.229175,-0.291243 0.22936,-0.322176 1.6e-4,-0.03093 0.048,-0.05625 0.106218,-0.05625 0.05822,0 0.105849,-0.05063 0.105849,-0.112483 0,-0.06188 0.02462,-0.112482 0.05465,-0.112482 0.08616,0 0.933426,-0.89328 0.933426,-0.98419 0,-0.04494 0.04295,-0.06418 0.09551,-0.04277 0.05255,0.02142 0.142858,-0.01715 0.200743,-0.08571 0.05784,-0.06855 0.176705,-0.175263 0.264031,-0.237129 0.34999,-0.247938 0.710085,-0.560312 0.710085,-0.615963 0,-0.03241 0.04505,-0.05894 0.100065,-0.05894 0.0869,0 0.565441,-0.240766 0.887985,-0.446786 0.249053,-0.159074 1.183808,-0.608409 1.326372,-0.637579 0.08554,-0.01751 0.226135,-0.08438 0.312451,-0.148629 0.08629,-0.06425 0.20547,-0.117024 0.264758,-0.11727 0.05932,0 0.200459,-0.05181 0.313706,-0.114552 0.113233,-0.06274 0.31922,-0.129505 0.457747,-0.14835 0.138526,-0.01883 0.395211,-0.08466 0.570427,-0.146244 0.30893,-0.108594 1.367506,-0.297159 1.941784,-0.345874 0.155265,-0.01318 1.053602,-0.02574 1.996321,-0.02793 1.4496,-0.0034 1.724339,0.01339 1.780931,0.108508 0.03679,0.06186 0.06744,0.07473 0.06794,0.02855 0.0013,-0.113258 0.499422,-0.193096 0.607867,-0.09747 0.04874,0.04301 0.103261,0.04713 0.125198,0.0095 0.02128,-0.03669 0.18542,-0.06906 0.364625,-0.07194 0.179204,-0.0028 0.346002,-0.02667 0.370656,-0.05288 0.02461,-0.0262 0.03618,-1.65741 0.02573,-3.624916 -0.02363,-4.403732 -0.02142,-3.593409 -0.01834,-6.951794 0.0013,-1.567276 -0.0025,-2.91708 -0.0074,-2.999568 -0.0062,-0.08249 -0.0049,-0.242778 0.0025,-0.356198 l 0.01255,-0.206449 1.966289,0 1.966291,0 0.03078,0.431187 c 0.03089,0.432458 0.01907,13.543789 -0.01342,14.849997 -0.0099,0.382678 -0.0025,0.711691 0.016,0.731144 0.01834,0.01946 0.02387,0.398125 0.01243,0.841498 -0.01109,0.443375 -0.02203,0.965367 -0.02351,1.159978 -0.0025,0.283032 -0.02388,0.345206 -0.108557,0.31068 -0.05822,-0.02374 -0.105849,-0.01071 -0.105849,0.02887 0,0.03962 -0.150859,0.06323 -0.335232,0.0525 -0.184375,-0.01071 -0.374928,0.01519 -0.423445,0.05765 -0.0533,0.04666 -0.08825,0.04863 -0.08825,0.0049 0,-0.10368 -2.067263,-0.09368 -2.1338,0.01037 -0.03533,0.05526 -0.05219,0.05167 -0.05293,-0.0112 -7.76e-4,-0.06603 -0.176755,-0.09192 -0.6186,-0.09098 -0.339639,7.25e-4 -0.665173,-0.0024 -0.723391,-0.007 -0.05822,-0.0046 -0.224965,0.01549 -0.37052,0.04455 -0.182934,0.0365 -0.264659,0.02581 -0.264659,-0.03462 0,-0.06 -0.03877,-0.06544 -0.12351,-0.0173 -0.144386,0.082 -1.011817,0.0613 -1.146823,-0.02736 -0.06375,-0.04187 -0.07545,-0.03152 -0.03766,0.0334 0.04295,0.07381 0.02252,0.07574 -0.09501,0.009 -0.08579,-0.04878 -0.149666,-0.05463 -0.149666,-0.01369 0,0.04204 -0.442793,0.07214 -1.076261,0.07314 -1.375481,0.0022 -1.755071,0.03487 -2.276046,0.195907 -0.23289,0.07198 -0.630747,0.186305 -0.884119,0.254037 -0.253362,0.06774 -0.666233,0.230132 -0.917464,0.360884 -0.251243,0.130752 -0.560013,0.278262 -0.686171,0.327808 -0.126144,0.04955 -0.229359,0.119721 -0.229359,0.155962 0,0.03625 -0.04763,0.06589 -0.10585,0.06589 -0.05822,0 -0.105848,0.02981 -0.105848,0.06624 0,0.03645 -0.05563,0.08653 -0.123498,0.1113 -0.315332,0.115044 -1.0057,0.656906 -1.0057,0.78936 0,0.04562 -0.03348,0.08294 -0.07446,0.08294 -0.08529,0 -0.822188,0.77802 -1.2093,1.276721 -0.339416,0.437255 -0.683906,0.99399 -0.904022,1.460993 -0.09698,0.205881 -0.202922,0.394952 -0.235292,0.420141 -0.03237,0.02519 -0.01648,0.06308 0.03533,0.08417 0.05181,0.02109 1.690012,0.03424 3.640523,0.02918 2.305658,-0.006 3.556792,0.01706 3.576102,0.06581 0.01982,0.05 0.03163,0.05 0.03533,0 0.0037,-0.04894 0.943716,-0.0686 2.705053,-0.05657 1.48469,0.01006 2.762962,0.01815 2.840589,0.01785 0.389018,-0.0016 0.77026,0.0016 2.346631,0.01938 0.941304,0.01071 1.711452,0.0024 1.71144,-0.01842 -1.2e-5,-0.02077 0.285803,-0.03765 0.635143,-0.03749 0.34935,0 0.635178,0.0276 0.635178,0.06097 0,0.03337 0.02573,0.04374 0.05723,0.02305 0.03151,-0.02068 0.420551,-0.04503 0.864551,-0.05406 0.641344,-0.01308 0.824931,-0.04095 0.89324,-0.135544 0.05576,-0.07727 0.08678,-0.08647 0.08824,-0.02624 0.0013,0.05922 0.08529,0.08435 0.231613,0.06939 0.126156,-0.01289 0.308401,0.0066 0.404995,0.04334 0.144385,0.05489 2.091584,0.07575 6.140819,0.06578 0.291109,-7.26e-4 0.918681,0.0072 1.394571,0.01759 0.475901,0.01048 0.897142,-0.002 0.936097,-0.0276 0.03903,-0.02557 0.300155,-0.0174 0.580457,0.01817 0.280304,0.03558 0.518144,0.03757 0.52853,0.0045 0.0099,-0.03312 0.264931,-0.04956 0.565652,-0.03653 0.901069,0.03909 3.191366,0.02517 3.259861,-0.01981 0.03507,-0.02302 0.08529,-0.146439 0.111756,-0.274257 0.09071,-0.43882 -0.0037,-0.467836 -1.557812,-0.476092 -0.760868,-0.0041 -1.398852,0.0192 -1.417745,0.05167 -0.01883,0.03247 -0.088,0.03173 -0.153555,-0.0017 -0.0656,-0.03336 -2.247048,-0.05854 -4.847729,-0.05596 -3.096336,0.003 -4.746396,-0.02136 -4.780354,-0.07079 -0.0325,-0.04741 -0.05231,-0.04129 -0.05293,0.0164 -7.75e-4,0.06522 -0.04885,0.07258 -0.165764,0.02536 -0.09268,-0.03744 -0.207698,-0.03828 -0.263034,-0.002 -0.06118,0.04013 -0.139057,0.02653 -0.205839,-0.03594 -0.05908,-0.05529 -0.250382,-0.125066 -0.425057,-0.155056 -0.305005,-0.05235 -0.702442,-0.224383 -0.776327,-0.335997 -0.01944,-0.02933 -0.162319,-0.140258 -0.317584,-0.246527 -0.347282,-0.237685 -1.023336,-0.913894 -1.023336,-1.023579 0,-0.04425 -0.03175,-0.08046 -0.07052,-0.08046 -0.03877,0 -0.07052,-0.03207 -0.07052,-0.07124 0,-0.03917 -0.09108,-0.216337 -0.202317,-0.393693 -0.211871,-0.337669 -0.366792,-0.76714 -0.413894,-1.147343 -0.123536,-0.997371 -0.121111,-1.223809 0.02129,-2.050445 0.09895,-0.574117 0.150552,-0.742258 0.325584,-1.061607 0.03385,-0.06186 0.08037,-0.171539 0.103135,-0.243714 0.02277,-0.07218 0.06732,-0.131232 0.09908,-0.131232 0.03163,0 0.07815,-0.06868 0.103146,-0.152609 0.07114,-0.238279 0.852131,-1.017358 1.330679,-1.327474 0.238099,-0.154293 0.448775,-0.281422 0.468184,-0.282499 0.01944,-0.001 0.07988,-0.03196 0.134417,-0.06865 0.0688,-0.04633 0.08344,-0.03969 0.04763,0.02173 -0.02831,0.04863 0.05638,0.0241 0.188091,-0.05454 0.371137,-0.221487 1.535325,-0.385505 1.535325,-0.2163 0,0.0617 0.02363,0.06047 0.08467,-0.0045 0.103754,-0.110316 0.338753,-0.118883 0.338753,-0.01235 0,0.05352 0.04246,0.05352 0.136509,0 0.200128,-0.113799 0.364785,-0.09507 0.47099,0.0536 0.08221,0.115068 0.09404,0.116372 0.096,0.01058 0.0013,-0.102308 0.09613,-0.119068 0.619771,-0.110218 0.339639,0.0057 0.662146,0.03992 0.716658,0.07598 0.06351,0.04203 0.08308,0.03788 0.05427,-0.01157 -0.0304,-0.05222 0.559079,-0.07413 1.823997,-0.06783 1.192191,0.0059 1.86929,0.03647 1.869991,0.08429 7.76e-4,0.04125 0.03188,0.02436 0.06954,-0.03749 0.03766,-0.06188 0.06893,-0.07507 0.06954,-0.02935 7.75e-4,0.05536 0.142527,0.07169 0.424529,0.04883 0.323847,-0.02623 0.423702,-0.01048 0.424527,0.06683 7.75e-4,0.08141 0.01342,0.08049 0.06413,-0.0046 0.05158,-0.08653 0.431752,-0.108778 2.079487,-0.121677 1.109024,-0.0087 2.004185,0.0053 1.989243,0.03089 -0.01489,0.02567 0.04924,0.04668 0.142553,0.04668 0.0933,0 0.169702,-0.01686 0.169702,-0.03749 0,-0.02061 1.141715,-0.03996 2.537123,-0.04295 1.63572,-0.0036 2.521983,0.02057 2.494499,0.06782 -0.02622,0.04507 -0.0049,0.04854 0.05538,0.009 0.130058,-0.08541 1.12361,-0.09896 1.12361,-0.01532 0,0.03594 0.03975,0.03872 0.08824,0.0062 0.138674,-0.09304 0.97024,-0.08747 0.971495,0.0066 7.76e-4,0.04472 0.03237,0.0307 0.07052,-0.03115 0.06179,-0.09998 0.07717,-0.09998 0.138995,0 0.04246,0.06877 0.06991,0.07758 0.07053,0.02266 0.0013,-0.112225 1.636127,-0.114317 1.704622,-0.0022 0.02683,0.04383 0.08406,0.04701 0.141159,0.0079 0.132054,-0.09049 0.860379,-0.08329 0.924283,0.0091 0.03212,0.04643 0.0523,0.03932 0.05293,-0.01874 7.75e-4,-0.05389 0.09108,-0.09375 0.212805,-0.09375 0.116433,0 0.211723,0.03787 0.211723,0.08417 0,0.06061 0.02781,0.05965 0.09932,-0.0034 0.122957,-0.108421 2.411175,-0.09893 2.60868,0.01084 0.0981,0.0545 0.118526,0.05008 0.07938,-0.01714 -0.0368,-0.0632 -0.0123,-0.0768 0.08209,-0.04507 0.0741,0.02498 0.267305,0.05096 0.429364,0.05771 0.162059,0.0067 0.278444,0.04016 0.258616,0.07421 -0.01982,0.03408 0.0133,0.04186 0.07348,0.0173 0.06018,-0.02455 0.109541,-0.0062 0.109541,0.041 0,0.0599 0.03902,0.06347 0.129739,0.01181 0.120003,-0.06826 0.315737,-0.05219 0.576015,0.04732 0.05822,0.02225 0.263969,0.05086 0.457229,0.06355 0.193261,0.0127 0.361511,0.05538 0.373906,0.09488 0.01243,0.03948 0.08087,0.0556 0.152041,0.03581 0.07127,-0.0198 0.229445,0.0189 0.351565,0.08601 0.122095,0.06711 0.252867,0.101762 0.290542,0.07701 0.03766,-0.02474 0.06855,-0.01262 0.06855,0.02695 0,0.03956 0.16484,0.113946 0.36631,0.165314 0.314495,0.08017 0.91894,0.349742 1.34417,0.599492 0.06744,0.03959 0.167968,0.07199 0.223488,0.07199 0.05551,0 0.111511,0.02531 0.124459,0.05623 0.02954,0.07062 0.591929,0.393696 0.685334,0.393696 0.03803,0 0.264437,0.137755 0.503004,0.306128 0.284721,0.200947 0.420564,0.342663 0.395358,0.41244 -0.0224,0.06202 0.0049,0.106316 0.06523,0.106316 0.05698,0 0.103628,-0.03616 0.103628,-0.08034 0,-0.04806 0.03902,-0.04053 0.09723,0.01874 0.05355,0.0545 0.197765,0.183461 0.320575,0.286572 0.122834,0.103104 0.32839,0.297143 0.456811,0.431185 0.128434,0.134046 0.268992,0.243717 0.312377,0.243717 0.04345,0 0.06179,0.04742 0.04087,0.105356 -0.02573,0.07125 0.03212,0.121737 0.178651,0.15594 0.119141,0.02781 0.216706,0.09379 0.216706,0.146598 0,0.0528 0.07938,0.159374 0.176436,0.236808 0.09698,0.07742 0.176434,0.177972 0.176434,0.223423 0,0.04546 0.123894,0.204436 0.275319,0.353304 0.151425,0.148868 0.379111,0.424251 0.505993,0.611963 0.126859,0.187707 0.257028,0.341292 0.289276,0.341292 0.03224,0 0.05859,0.03813 0.05859,0.08478 0,0.04663 0.111143,0.249182 0.247011,0.450116 0.135855,0.200926 0.247009,0.397316 0.247009,0.436413 0,0.03911 0.04012,0.09808 0.08924,0.131058 0.07828,0.05264 0.231477,0.357033 0.50187,0.997337 0.04357,0.103104 0.09514,0.204343 0.114588,0.224967 0.09059,0.096 0.211833,0.386193 0.211833,0.507218 0,0.07387 0.04345,0.200874 0.09649,0.282231 0.126058,0.193103 0.486179,1.457878 0.67198,2.360095 0.256487,1.245399 0.294654,2.072524 0.291256,6.313042 -0.0025,3.841758 0.0049,4.106793 0.121234,4.1811 0.117418,0.07481 0.117665,0.08375 0.0025,0.156862 -0.111879,0.07137 -0.121234,0.321432 -0.118402,3.156618 0.0013,1.693501 -0.0099,3.092337 -0.02462,3.108526 -0.01526,0.01618 -0.20457,-0.181031 -0.420735,-0.438266 z M 16.031001,55.185604 c 0.0049,-0.05653 -0.272979,-0.01518 -0.33394,0.04959 -0.02069,0.02192 0.01538,0.03986 0.08012,0.03986 0.06474,0 0.119879,0.05905 0.122587,0.131231 0.0037,0.112211 0.01379,0.109492 0.0656,-0.01874 0.03336,-0.08249 0.0629,-0.173352 0.0656,-0.201917 z m 0.489477,-0.851764 c 0.02228,-0.122317 0.0099,-0.12782 -0.08825,-0.04084 -0.134883,0.118945 -0.151684,0.25797 -0.02573,0.213427 0.0485,-0.01718 0.09981,-0.09484 0.113972,-0.172588 z m 0.221224,-0.37554 c 0,-0.06431 -0.03175,-0.09605 -0.07052,-0.07057 -0.03877,0.02548 -0.07052,0.07811 -0.07052,0.116913 0,0.03881 0.03175,0.07057 0.07052,0.07057 0.03877,0 0.07052,-0.05263 0.07052,-0.116914 z m 3.015596,-7.052375 c -0.02339,-0.02493 -0.08431,-0.02758 -0.135265,-0.0059 -0.05625,0.02393 -0.03963,0.04171 0.04259,0.0453 0.07447,0.0032 0.116065,-0.01447 0.09268,-0.03938 z m 38.764646,10.040462 c 0,-0.06059 0.03471,-0.08269 0.08149,-0.05192 0.05255,0.0345 0.06228,0.0204 0.02732,-0.0397 -0.106711,-0.183565 -0.132853,-1.729183 -0.03261,-1.92834 0.07471,-0.148312 0.07582,-0.197858 0.0049,-0.244178 -0.105972,-0.06957 -0.09452,-2.106823 0.0123,-2.106823 0.0368,0 0.03434,-0.04082 -0.0062,-0.09375 -0.03914,-0.05156 -0.07422,-0.532421 -0.07815,-1.068594 -0.0037,-0.536171 -0.0087,-1.025476 -0.01108,-1.087341 -0.0025,-0.06188 0.0013,-0.336472 0.0087,-0.610226 0.0062,-0.273764 -0.0087,-0.532956 -0.03373,-0.575986 -0.02498,-0.04304 -0.01648,-0.09727 0.01883,-0.120519 0.03618,-0.02381 0.04037,-0.155679 0.0099,-0.301779 -0.03114,-0.146573 -0.02719,-0.269355 0.0087,-0.282161 0.0352,-0.01246 0.08025,-0.11791 0.100191,-0.234335 0.02302,-0.134906 0.0099,-0.194289 -0.03692,-0.163746 -0.04013,0.02636 -0.07299,0.01745 -0.07299,-0.0198 0,-0.03749 0.503999,-0.06755 1.129198,-0.06734 0.766357,0 1.129542,0.02662 1.130268,0.08203 7.75e-4,0.05369 0.01883,0.05568 0.05293,0.0058 0.07139,-0.104571 1.307946,-0.109702 1.37404,-0.0057 0.03471,0.05464 0.05219,0.04883 0.05293,-0.01749 0.001,-0.08212 0.01661,-0.08212 0.09181,0 0.07052,0.07695 0.08899,0.630938 0.08259,2.479712 -0.0049,1.309343 -0.02916,2.402954 -0.05489,2.430251 -0.02573,0.0273 -0.01108,0.09447 0.03114,0.149312 0.0437,0.05596 0.05416,0.157663 0.02388,0.231864 -0.05551,0.135978 -0.07361,0.210271 -0.09219,0.380322 -0.0062,0.054 -0.04246,0.07731 -0.08136,0.05181 -0.03877,-0.02548 -0.07053,-0.01261 -0.07053,0.02864 0,0.04125 0.02745,0.09304 0.06105,0.115116 0.07471,0.04908 0.01638,0.418659 -0.06609,0.418659 -0.0325,0 -0.08012,0.118932 -0.105848,0.264299 -0.0256,0.14536 -0.112495,0.313312 -0.193014,0.373223 -0.08049,0.0599 -0.127105,0.129378 -0.103512,0.154389 0.0512,0.05442 -0.240019,0.378574 -0.315959,0.351676 -0.02916,-0.01037 -0.05293,0.03341 -0.05293,0.09713 0,0.130488 -0.306949,0.484025 -0.420232,0.484025 -0.04062,0 -0.07386,0.02802 -0.07386,0.06228 0,0.101763 -0.593959,0.523989 -0.816992,0.580771 -0.11348,0.0289 -0.240535,0.08091 -0.282333,0.115583 -0.04184,0.03467 -0.184719,0.07221 -0.317596,0.0834 -0.132866,0.0112 -0.259822,0.0465 -0.282125,0.07845 -0.02228,0.03196 -0.189026,0.06897 -0.37052,0.08227 -0.247244,0.01811 -0.329977,-0.0022 -0.329977,-0.08129 z m 0.617529,-14.778871 c -0.507681,-0.02034 -0.547595,-0.03379 -0.555866,-0.187473 -0.02719,-0.505166 0.0013,-0.645853 0.228866,-1.120668 0.03434,-0.07162 0.0624,-0.181386 0.0624,-0.243933 0,-0.169408 0.38833,-0.800502 0.451371,-0.733527 0.02991,0.0318 0.048,0.02407 0.04012,-0.01718 -0.0074,-0.04125 -0.01108,-0.112164 -0.0062,-0.157606 0.01109,-0.110145 0.414276,-0.554792 0.502991,-0.554792 0.03853,0 0.06991,-0.05145 0.06991,-0.114341 0,-0.06289 0.07938,-0.146414 0.176423,-0.185618 0.09698,-0.0392 0.176447,-0.109787 0.176447,-0.156867 0,-0.04772 0.06043,-0.06881 0.136582,-0.04764 0.08308,0.0231 0.152854,-0.007 0.178109,-0.07698 0.0229,-0.06322 0.06043,-0.09484 0.08357,-0.07027 0.02314,0.02456 0.08935,-0.0057 0.147315,-0.06722 0.0933,-0.09917 0.11508,-0.09758 0.191968,0.01408 0.08111,0.117874 0.0896,0.117812 0.132521,-7.77e-4 0.02708,-0.07503 0.01735,-0.108174 -0.02401,-0.08109 -0.03841,0.02519 -0.06978,0.0137 -0.06978,-0.02557 0,-0.03925 0.04763,-0.09082 0.105849,-0.114551 0.05822,-0.02374 0.106341,-0.0021 0.106957,0.04823 7.76e-4,0.07161 0.01292,0.07167 0.05563,2.59e-4 0.02991,-0.0501 0.212091,-0.126222 0.404724,-0.169145 0.437291,-0.09746 1.655869,-0.145545 1.655869,-0.06537 0,0.03269 0.07151,0.03364 0.158786,0.0021 0.200571,-0.07241 10.657918,-0.05681 10.768887,0.01605 0.04505,0.02961 0.119756,0.02906 0.165838,-0.0014 0.04616,-0.03028 0.40971,-0.05759 0.807996,-0.06067 0.632791,-0.0049 0.728214,0.01096 0.756413,0.125553 0.01772,0.07214 0.0037,0.150053 -0.03163,0.173151 -0.0352,0.0231 -0.06401,0.174985 -0.06401,0.337525 0,0.162544 -0.02646,0.295534 -0.05884,0.295534 -0.03237,0 -0.05255,0.07593 -0.04492,0.168724 0.0074,0.0928 -0.01354,0.205884 -0.04701,0.251298 -0.03348,0.04542 -0.06782,0.172022 -0.07631,0.281351 -0.0087,0.117923 -0.06868,0.216729 -0.14633,0.242908 -0.07594,0.0256 -0.114833,0.08848 -0.09268,0.149836 0.02105,0.05814 0.01427,0.105714 -0.01502,0.105714 -0.02929,0 -0.107695,0.09817 -0.174417,0.21816 -0.157406,0.283119 -0.791306,0.981668 -0.890816,0.981668 -0.04234,0 -0.07692,0.05625 -0.07692,0.124977 0,0.06874 -0.02093,0.102779 -0.0464,0.07565 -0.0256,-0.02714 -0.08111,-0.01897 -0.123498,0.01814 -0.107941,0.09454 -0.931359,0.430896 -1.312132,0.536025 -0.174662,0.04823 -0.587535,0.08295 -0.917463,0.07719 -0.910201,-0.01593 -2.621469,-0.01981 -3.518292,-0.008 -0.440638,0.0059 -0.815392,-0.0046 -0.832784,-0.02302 -0.01735,-0.01848 -0.147056,-0.0059 -0.288142,0.02786 -0.151167,0.03622 -0.309128,0.03156 -0.384625,-0.01144 -0.08751,-0.04976 -0.128114,-0.04683 -0.128114,0.0092 0,0.04513 -0.03458,0.05934 -0.07692,0.03156 -0.08492,-0.05576 -1.699734,-0.05729 -1.952122,-0.0018 -0.08738,0.01919 -0.158799,0.005 -0.158799,-0.03149 0,-0.0365 -0.07151,-0.0511 -0.158785,-0.03244 -0.214885,0.04593 -4.207898,0.04382 -4.423336,-0.0024 -0.09417,-0.02017 -0.205323,-0.01219 -0.247021,0.0178 -0.04173,0.02995 -0.321928,0.04462 -0.622749,0.03258 z"
     id="path4147"
     inkscape:connector-curvature="0"
     inkscape:export-xdpi="6.5204334"
     inkscape:export-ydpi="6.5204334" />
</svg>
