{
    "componentChunkName": "component---src-templates-blog-template-js",
    "path": "/blog/my-second-post",
    "result": {"data":{"markdownRemark":{"html":"<p>Hello Universe!</p>","frontmatter":{"date":"May 07, 2020","slug":"/blog/my-second-post","title":"My second blog post"}}},"pageContext":{"slug":"/blog/my-second-post"}},
    "staticQueryHashes": []}