<!-- Generated by IcoMoon.io -->
<svg version="1.1" xmlns="http://www.w3.org/2000/svg" width="32" height="32" viewBox="0 0 32 32">
<title>add_comment</title>
<path d="M22.688 14.688v-2.688h-5.375v-5.313h-2.625v5.313h-5.375v2.688h5.375v5.313h2.625v-5.313h5.375zM29.313 5.313v24l-5.313-5.313h-18.688q-1.063 0-1.844-0.813t-0.781-1.875v-16q0-1.063 0.781-1.844t1.844-0.781h21.375q1.063 0 1.844 0.781t0.781 1.844z"></path>
</svg>
