<!-- Generated by IcoMoon.io -->
<svg version="1.1" xmlns="http://www.w3.org/2000/svg" width="32" height="32" viewBox="0 0 32 32">
<title>airline_seat_legroom_extra</title>
<path d="M30.438 23q0.438 0.75 0.125 1.563t-1.063 1.188l-4.938 2.25-4.563-9.313h-9.313q-1.625 0-2.813-1.188t-1.188-2.813v-10.688h8v8h4.688q0.688 0 1.375 0.438t1 1.063l4.5 9.313 1.5-0.688q0.75-0.313 1.531-0.063t1.156 0.938zM5.313 16q0 1.625 1.188 2.813t2.813 1.188h8v2.688h-8q-2.75 0-4.688-1.969t-1.938-4.719v-12h2.625v12z"></path>
</svg>
