<!-- Generated by IcoMoon.io -->
<svg version="1.1" xmlns="http://www.w3.org/2000/svg" width="32" height="32" viewBox="0 0 32 32">
<title>alternate_email</title>
<path d="M16 20q1.625 0 2.813-1.188t1.188-2.813-1.188-2.813-2.813-1.188-2.813 1.188-1.188 2.813 1.188 2.813 2.813 1.188zM16 2.688q5.5 0 9.406 3.906t3.906 9.406v1.938q0 2-1.344 3.375t-3.281 1.375q-2.438 0-3.938-2-2 2-4.75 2t-4.719-1.969-1.969-4.719 1.969-4.719 4.719-1.969 4.719 1.969 1.969 4.719v1.938q0 0.813 0.594 1.438t1.406 0.625 1.406-0.625 0.594-1.438v-1.938q0-4.375-3.156-7.531t-7.531-3.156-7.531 3.156-3.156 7.531 3.156 7.531 7.531 3.156h6.688v2.625h-6.688q-5.5 0-9.406-3.906t-3.906-9.406 3.906-9.406 9.406-3.906z"></path>
</svg>
