<!-- Generated by IcoMoon.io -->
<svg version="1.1" xmlns="http://www.w3.org/2000/svg" width="32" height="32" viewBox="0 0 32 32">
<title>arrow_back_ios</title>
<path d="M15.563 5.188l-10.813 10.813 10.813 10.813-2.375 2.375-13.188-13.188 13.188-13.188z"></path>
</svg>
