<!-- Generated by IcoMoon.io -->
<svg version="1.1" xmlns="http://www.w3.org/2000/svg" width="32" height="32" viewBox="0 0 32 32">
<title>aspect_ratio</title>
<path d="M28 25.375v-18.75h-24v18.75h24zM28 4q1.063 0 1.875 0.813t0.813 1.875v18.625q0 1.063-0.813 1.875t-1.875 0.813h-24q-1.063 0-1.875-0.813t-0.813-1.875v-18.625q0-1.063 0.813-1.875t1.875-0.813h24zM9.313 12v4h-2.625v-6.688h6.625v2.688h-4zM25.313 16v6.688h-6.625v-2.688h4v-4h2.625z"></path>
</svg>
