<!-- Generated by IcoMoon.io -->
<svg version="1.1" xmlns="http://www.w3.org/2000/svg" width="32" height="32" viewBox="0 0 32 32">
<title>assistant_direction</title>
<path d="M26.313 16.75q0.875-0.875 0-1.5l-9.563-9.625q-0.813-0.625-1.563 0l-9.563 9.625q-0.313 0.5-0.313 0.75t0.313 0.75l9.563 9.625q0.813 0.625 1.563 0zM16 1.313q6.125 0 10.406 4.281t4.281 10.406-4.281 10.406-10.406 4.281-10.406-4.281-4.281-10.406 4.281-10.406 10.406-4.281zM18.688 13.313v-3.313l4.625 4.688-4.625 4.625v-3.313h-5.375v4h-2.625v-5.313q0-1.375 1.313-1.375h6.688z"></path>
</svg>
