<!-- Generated by IcoMoon.io -->
<svg version="1.1" xmlns="http://www.w3.org/2000/svg" width="32" height="32" viewBox="0 0 32 32">
<title>ballot</title>
<path d="M9.313 18.688h4v4h-4v-4zM8 24h6.688v-6.688h-6.688v6.688zM9.313 9.313h4v4h-4v-4zM8 14.688h6.688v-6.688h-6.688v6.688zM25.313 28h-18.625q-1.063 0-1.875-0.813t-0.813-1.875v-18.625q0-1.063 0.813-1.875t1.875-0.813h18.625q1.063 0 1.875 0.813t0.813 1.875v18.625q0 1.063-0.813 1.875t-1.875 0.813zM17.313 22h6.688v-2.688h-6.688v2.688zM17.313 12.688h6.688v-2.688h-6.688v2.688z"></path>
</svg>
