<!-- Generated by IcoMoon.io -->
<svg version="1.1" xmlns="http://www.w3.org/2000/svg" width="32" height="32" viewBox="0 0 32 32">
<title>business_center</title>
<path d="M18.688 9.313v-2.625h-5.375v2.625h5.375zM26.688 9.313q1.063 0 1.844 0.813t0.781 1.875v4q0 1.063-0.781 1.875t-1.844 0.813h-8v-2.688h-5.375v2.688h-8q-1.125 0-1.875-0.781t-0.75-1.906v-4q0-1.063 0.781-1.875t1.844-0.813h5.313v-2.625l2.688-2.688h5.313l2.688 2.688v2.625h5.375zM13.313 21.313h5.375v-1.313h9.313v5.313q0 1.125-0.781 1.906t-1.906 0.781h-18.625q-1.125 0-1.906-0.781t-0.781-1.906v-5.313h9.313v1.313z"></path>
</svg>
