<!-- Generated by IcoMoon.io -->
<svg version="1.1" xmlns="http://www.w3.org/2000/svg" width="32" height="32" viewBox="0 0 32 32">
<title>call</title>
<path d="M26.688 20.5q0.563 0 0.938 0.375t0.375 0.938v4.625q0 1.563-1.313 1.563-9.313 0-16-6.688t-6.688-16q0-1.313 1.563-1.313h4.625q0.563 0 0.938 0.375t0.375 0.938q0 2.438 0.75 4.688 0.25 0.813-0.313 1.375l-2.563 2.25q2.875 6 9.188 9.063l2.063-2.625q0.375-0.375 0.938-0.375 0.313 0 0.438 0.063 2.25 0.75 4.688 0.75z"></path>
</svg>
