<!-- Generated by IcoMoon.io -->
<svg version="1.1" xmlns="http://www.w3.org/2000/svg" width="32" height="32" viewBox="0 0 32 32">
<title>cancel</title>
<path d="M22.688 20.813l-4.813-4.813 4.813-4.813-1.875-1.875-4.813 4.813-4.813-4.813-1.875 1.875 4.813 4.813-4.813 4.813 1.875 1.875 4.813-4.813 4.813 4.813zM16 2.688q5.5 0 9.406 3.906t3.906 9.406-3.906 9.406-9.406 3.906-9.406-3.906-3.906-9.406 3.906-9.406 9.406-3.906z"></path>
</svg>
