<!-- Generated by IcoMoon.io -->
<svg version="1.1" xmlns="http://www.w3.org/2000/svg" width="32" height="32" viewBox="0 0 32 32">
<title>cases</title>
<path d="M5.313 12v14.688h21.375q0 1.125-0.781 1.875t-1.906 0.75h-18.688q-1.125 0-1.875-0.75t-0.75-1.875v-14.688h2.625zM21.313 8v-1.313q0-0.5-0.438-0.938t-0.875-0.438h-4q-0.5 0-0.906 0.406t-0.406 0.969v1.313h6.625zM12 8v-2.688l2.688-2.625h6.625l2.688 2.625v2.688h5.313v14.688q0 1.063-0.781 1.844t-1.844 0.781h-17.375q-1.063 0-1.844-0.781t-0.781-1.844v-14.688h5.313z"></path>
</svg>
