<!-- Generated by IcoMoon.io -->
<svg version="1.1" xmlns="http://www.w3.org/2000/svg" width="32" height="32" viewBox="0 0 32 32">
<title>casino</title>
<path d="M22 12q0.875 0 1.438-0.563t0.563-1.438-0.563-1.438-1.438-0.563-1.438 0.563-0.563 1.438 0.563 1.438 1.438 0.563zM22 24q0.875 0 1.438-0.563t0.563-1.438-0.563-1.438-1.438-0.563-1.438 0.563-0.563 1.438 0.563 1.438 1.438 0.563zM16 18q0.875 0 1.438-0.563t0.563-1.438-0.563-1.438-1.438-0.563-1.438 0.563-0.563 1.438 0.563 1.438 1.438 0.563zM10 12q0.875 0 1.438-0.563t0.563-1.438-0.563-1.438-1.438-0.563-1.438 0.563-0.563 1.438 0.563 1.438 1.438 0.563zM10 24q0.875 0 1.438-0.563t0.563-1.438-0.563-1.438-1.438-0.563-1.438 0.563-0.563 1.438 0.563 1.438 1.438 0.563zM25.313 4q1.063 0 1.875 0.813t0.813 1.875v18.625q0 1.063-0.813 1.875t-1.875 0.813h-18.625q-1.063 0-1.875-0.813t-0.813-1.875v-18.625q0-1.063 0.813-1.875t1.875-0.813h18.625z"></path>
</svg>
