<!-- Generated by IcoMoon.io -->
<svg version="1.1" xmlns="http://www.w3.org/2000/svg" width="32" height="32" viewBox="0 0 32 32">
<title>check_box</title>
<path d="M13.313 22.688l12-12-1.875-1.938-10.125 10.125-4.75-4.75-1.875 1.875zM25.313 4q1.125 0 1.906 0.781t0.781 1.906v18.625q0 1.125-0.781 1.906t-1.906 0.781h-18.625q-1.125 0-1.906-0.781t-0.781-1.906v-18.625q0-1.125 0.781-1.906t1.906-0.781h18.625z"></path>
</svg>
