<!-- Generated by IcoMoon.io -->
<svg version="1.1" xmlns="http://www.w3.org/2000/svg" width="32" height="32" viewBox="0 0 32 32">
<title>cloud_upload</title>
<path d="M18.688 17.313h4l-6.688-6.625-6.688 6.625h4v5.375h5.375v-5.375zM25.813 13.375q2.563 0.188 4.375 2.094t1.813 4.531q0 2.75-1.969 4.719t-4.719 1.969h-17.313q-3.313 0-5.656-2.344t-2.344-5.656q0-2.938 2.094-5.281t5.031-2.656q1.313-2.438 3.688-3.938t5.188-1.5q3.375 0 6.281 2.375t3.531 5.688z"></path>
</svg>
