<!-- Generated by IcoMoon.io -->
<svg version="1.1" xmlns="http://www.w3.org/2000/svg" width="32" height="32" viewBox="0 0 32 32">
<title>connected_tv</title>
<path d="M5.313 10.688q4.438 0 7.563 3.125t3.125 7.5h-1.938q0-3.625-2.563-6.156t-6.188-2.531v-1.938zM5.313 14.688q2.75 0 4.719 1.938t1.969 4.688h-1.938q0-1.938-1.406-3.344t-3.344-1.406v-1.875zM5.313 18.688q1.125 0 1.906 0.75t0.781 1.875h-2.688v-2.625zM28 22.688v-16h-24v16h24zM28 4q1.063 0 1.875 0.813t0.813 1.875l-0.063 16q0 1.063-0.781 1.844t-1.844 0.781h-6.688v2.688h-10.625v-2.688h-6.688q-1.063 0-1.875-0.781t-0.813-1.844v-16q0-1.063 0.813-1.875t1.875-0.813h24z"></path>
</svg>
