<!-- Generated by IcoMoon.io -->
<svg version="1.1" xmlns="http://www.w3.org/2000/svg" width="32" height="32" viewBox="0 0 32 32">
<title>control_camera</title>
<path d="M12 16q0-1.625 1.188-2.813t2.813-1.188 2.813 1.188 1.188 2.813-1.188 2.813-2.813 1.188-2.813-1.188-1.188-2.813zM7.375 11.25l2.375 2.375-2.375 2.375 2.375 2.375-2.375 2.375-4.688-4.75zM11.25 24.625l2.375-2.375 2.375 2.375 2.375-2.375 2.375 2.375-4.75 4.688zM24.625 20.75l-2.375-2.375 2.375-2.375-2.375-2.375 2.375-2.375 4.688 4.75zM20.75 7.375l-2.375 2.375-2.375-2.375-2.375 2.375-2.375-2.375 4.75-4.688z"></path>
</svg>
