<!-- Generated by IcoMoon.io -->
<svg version="1.1" xmlns="http://www.w3.org/2000/svg" width="32" height="32" viewBox="0 0 32 32">
<title>crop_16_9</title>
<path d="M25.313 21.313v-10.625h-18.625v10.625h18.625zM25.313 8q1.063 0 1.875 0.813t0.813 1.875v10.625q0 1.063-0.813 1.875t-1.875 0.813h-18.625q-1.063 0-1.875-0.813t-0.813-1.875v-10.625q0-1.063 0.813-1.875t1.875-0.813h18.625z"></path>
</svg>
