<!-- Generated by IcoMoon.io -->
<svg version="1.1" xmlns="http://www.w3.org/2000/svg" width="32" height="32" viewBox="0 0 32 32">
<title>delete_outline</title>
<path d="M20.688 5.313h4.625v2.688h-18.625v-2.688h4.625l1.375-1.313h6.625zM10.688 12v13.313h10.625v-13.313h-10.625zM8 25.313v-16h16v16q0 1.063-0.813 1.875t-1.875 0.813h-10.625q-1.063 0-1.875-0.813t-0.813-1.875z"></path>
</svg>
