<!-- Generated by IcoMoon.io -->
<svg version="1.1" xmlns="http://www.w3.org/2000/svg" width="32" height="32" viewBox="0 0 32 32">
<title>description</title>
<path d="M17.313 12h7.375l-7.375-7.313v7.313zM21.313 18.688v-2.688h-10.625v2.688h10.625zM21.313 24v-2.688h-10.625v2.688h10.625zM18.688 2.688l8 8v16q0 1.063-0.813 1.844t-1.875 0.781h-16q-1.063 0-1.875-0.781t-0.813-1.844l0.063-21.375q0-1.063 0.781-1.844t1.844-0.781h10.688z"></path>
</svg>
