<!-- Generated by IcoMoon.io -->
<svg version="1.1" xmlns="http://www.w3.org/2000/svg" width="32" height="32" viewBox="0 0 32 32">
<title>event_seat</title>
<path d="M22.688 17.313h-13.375v-10.625q0-1.063 0.813-1.875t1.875-0.813h8q1.063 0 1.875 0.813t0.813 1.875v10.625zM2.688 13.313h4v4h-4v-4zM25.313 13.313h4v4h-4v-4zM5.313 28v-8h21.375v8h-4v-4h-13.375v4h-4z"></path>
</svg>
