<!-- Generated by IcoMoon.io -->
<svg version="1.1" xmlns="http://www.w3.org/2000/svg" width="32" height="32" viewBox="0 0 32 32">
<title>file_download</title>
<path d="M6.688 24h18.625v2.688h-18.625v-2.688zM25.313 12l-9.313 9.313-9.313-9.313h5.313v-8h8v8h5.313z"></path>
</svg>
