<!-- Generated by IcoMoon.io -->
<svg version="1.1" xmlns="http://www.w3.org/2000/svg" width="32" height="32" viewBox="0 0 32 32">
<title>filter_frames</title>
<path d="M24 10.688h-16v13.313h16v-13.313zM26.688 26.688v-18.688h-6l-4.625-4.688-4.688 4.688h-6.063v18.688h21.375zM26.688 5.313q1.063 0 1.844 0.813t0.781 1.875v18.688q0 1.063-0.781 1.844t-1.844 0.781h-21.375q-1.063 0-1.844-0.781t-0.781-1.844v-18.688q0-1.063 0.781-1.875t1.844-0.813h5.375l5.313-5.313 5.313 5.313h5.375z"></path>
</svg>
