<!-- Generated by IcoMoon.io -->
<svg version="1.1" xmlns="http://www.w3.org/2000/svg" width="32" height="32" viewBox="0 0 32 32">
<title>flight_takeoff</title>
<path d="M29.438 12.875q0.188 0.813-0.219 1.5t-1.219 0.938q-7.75 2.063-12.875 3.438l-7.063 1.875-2.125 0.625-3.5-6 1.938-0.5 2.625 2 6.625-1.75-5.5-9.563 2.563-0.688 9.188 8.563 7.125-1.875q0.813-0.25 1.531 0.188t0.906 1.25zM3.313 25.313h25.375v2.688h-25.375v-2.688z"></path>
</svg>
