<!-- Generated by IcoMoon.io -->
<svg version="1.1" xmlns="http://www.w3.org/2000/svg" width="32" height="32" viewBox="0 0 32 32">
<title>gps_fixed</title>
<path d="M16 25.313q3.875 0 6.594-2.719t2.719-6.594-2.719-6.594-6.594-2.719-6.594 2.719-2.719 6.594 2.719 6.594 6.594 2.719zM27.938 14.688h2.75v2.625h-2.75q-0.438 3.938-3.563 7.063t-7.063 3.563v2.75h-2.625v-2.75q-3.938-0.438-7.063-3.563t-3.563-7.063h-2.75v-2.625h2.75q0.438-3.938 3.563-7.063t7.063-3.563v-2.75h2.625v2.75q3.938 0.438 7.063 3.563t3.563 7.063zM16 10.688q2.188 0 3.75 1.563t1.563 3.75-1.563 3.75-3.75 1.563-3.75-1.563-1.563-3.75 1.563-3.75 3.75-1.563z"></path>
</svg>
