<!-- Generated by IcoMoon.io -->
<svg version="1.1" xmlns="http://www.w3.org/2000/svg" width="32" height="32" viewBox="0 0 32 32">
<title>gps_off</title>
<path d="M21.688 23.375l-13.063-13.063q-0.813 1.063-1.375 2.719t-0.563 2.969q0 3.875 2.719 6.594t6.594 2.719q1.313 0 2.969-0.563t2.719-1.375zM4 5.688l1.688-1.688 22.313 22.313-1.688 1.688-2.75-2.75q-2.813 2.313-6.25 2.688v2.75h-2.625v-2.75q-3.938-0.438-7.063-3.563t-3.563-7.063h-2.75v-2.625h2.75q0.125-1.438 0.938-3.281t1.75-2.969zM27.938 14.688h2.75v2.625h-2.75q-0.313 2.438-1.313 4.25l-2-2q0.688-1.688 0.688-3.563 0-3.875-2.719-6.594t-6.594-2.719q-1.875 0-3.563 0.688l-2-2q1.938-1 4.25-1.313v-2.75h2.625v2.75q3.938 0.438 7.063 3.563t3.563 7.063z"></path>
</svg>
