<!-- Generated by IcoMoon.io -->
<svg version="1.1" xmlns="http://www.w3.org/2000/svg" width="32" height="32" viewBox="0 0 32 32">
<title>imagesearch_roller</title>
<path d="M26.688 2.688v8h-18.688v-2.688h-2.688v5.313h13.375v6.688h2.625v10.688h-8v-10.688h2.688v-4h-13.313v-10.688h5.313v-2.625h18.688z"></path>
</svg>
