<!-- Generated by IcoMoon.io -->
<svg version="1.1" xmlns="http://www.w3.org/2000/svg" width="32" height="32" viewBox="0 0 32 32">
<title>image_search</title>
<path d="M20.688 12q1.375 0 2.344-0.969t0.969-2.344-0.969-2.375-2.344-1-2.375 1-1 2.375 1 2.344 2.375 0.969zM25.75 11.875l4.125 4.125-1.875 1.875-4.188-4.125q-1.563 0.938-3.188 0.938-2.5 0-4.219-1.75t-1.719-4.25 1.75-4.25 4.25-1.75 4.25 1.75 1.75 4.25q0 1.625-0.938 3.188zM22 24h-14.688l3.688-4.688 2.625 3.125 3.625-4.688zM24 17.313l2.688 2.688v6.688q0 1.063-0.813 1.844t-1.875 0.781h-18.688q-1.063 0-1.844-0.781t-0.781-1.844v-18.688q0-1.063 0.781-1.875t1.844-0.813h7.375q-0.625 1.313-0.688 2.688h-6.688v18.688h18.688v-9.375z"></path>
</svg>
