<!-- Generated by IcoMoon.io -->
<svg version="1.1" xmlns="http://www.w3.org/2000/svg" width="32" height="32" viewBox="0 0 32 32">
<title>k_plus4</title>
<path d="M26.688 16.688v-1.375h-2v-2h-1.375v2h-2v1.375h2v2h1.375v-2h2zM21.313 20l-3-4 3-4h-2.313l-2.313 3v-3h-2v8h2v-3l2.313 3h2.313zM12.688 14v-2h-6v4.688h4v1.313h-4v2h4.625q0.563 0 0.969-0.375t0.406-0.938v-2q0-0.563-0.406-0.969t-0.969-0.406h-2.625v-1.313h4zM25.313 4q1.063 0 1.875 0.813t0.813 1.875v18.625q0 1.063-0.813 1.875t-1.875 0.813h-18.625q-1.063 0-1.875-0.813t-0.813-1.875v-18.625q0-1.063 0.813-1.875t1.875-0.813h18.625z"></path>
</svg>
