<!-- Generated by IcoMoon.io -->
<svg version="1.1" xmlns="http://www.w3.org/2000/svg" width="32" height="32" viewBox="0 0 32 32">
<title>local_pizza</title>
<path d="M16 20q1.063 0 1.875-0.813t0.813-1.875-0.813-1.844-1.875-0.781-1.875 0.781-0.813 1.844 0.813 1.875 1.875 0.813zM9.313 9.313q0 1.063 0.813 1.875t1.875 0.813 1.875-0.813 0.813-1.875-0.813-1.844-1.875-0.781-1.875 0.781-0.813 1.844zM16 2.688q7.188 0 12 5.313l-12 21.313-12-21.313q4.813-5.313 12-5.313z"></path>
</svg>
