<!-- Generated by IcoMoon.io -->
<svg version="1.1" xmlns="http://www.w3.org/2000/svg" width="32" height="32" viewBox="0 0 32 32">
<title>markunread_mailbox</title>
<path d="M26.688 8q1.063 0 1.844 0.813t0.781 1.875v16q0 1.063-0.781 1.844t-1.844 0.781h-21.375q-1.063 0-1.844-0.781t-0.781-1.844v-16q0-1.063 0.781-1.875t1.844-0.813h2.688v-8h10.688v5.313h-8v10.688h2.625v-8h13.375z"></path>
</svg>
