<!-- Generated by IcoMoon.io -->
<svg version="1.1" xmlns="http://www.w3.org/2000/svg" width="32" height="32" viewBox="0 0 32 32">
<title>money</title>
<path d="M5.313 24h21.375v-16h-21.375v16zM2.688 5.313h26.625v21.375h-26.625v-21.375zM22.688 18.688v-5.375h-1.375v5.375h1.375zM24 10.688q0.563 0 0.938 0.375t0.375 0.938v8q0 0.563-0.375 0.938t-0.938 0.375h-4q-0.563 0-0.938-0.375t-0.375-0.938v-8q0-0.563 0.375-0.938t0.938-0.375h4zM14.688 18.688v-5.375h-1.375v5.375h1.375zM16 10.688q0.563 0 0.938 0.375t0.375 0.938v8q0 0.563-0.375 0.938t-0.938 0.375h-4q-0.563 0-0.938-0.375t-0.375-0.938v-8q0-0.563 0.375-0.938t0.938-0.375h4zM6.688 10.688h2.625v10.625h-2.625v-10.625z"></path>
</svg>
