<!-- Generated by IcoMoon.io -->
<svg version="1.1" xmlns="http://www.w3.org/2000/svg" width="32" height="32" viewBox="0 0 32 32">
<title>move_to_inbox</title>
<path d="M21.313 13.313l-5.313 5.375-5.313-5.375h2.625v-4h5.375v4h2.625zM25.313 20v-13.313h-18.688v13.313h5.375q0 1.625 1.188 2.813t2.813 1.188 2.813-1.188 1.188-2.813h5.313zM25.313 4q1.063 0 1.875 0.813t0.813 1.875v18.625q0 1.063-0.813 1.875t-1.875 0.813h-18.688q-1.125 0-1.875-0.781t-0.75-1.906v-18.625q0-1.125 0.75-1.906t1.875-0.781h18.688z"></path>
</svg>
