<!-- Generated by IcoMoon.io -->
<svg version="1.1" xmlns="http://www.w3.org/2000/svg" width="32" height="32" viewBox="0 0 32 32">
<title>mp6</title>
<path d="M20.688 18.688h2v2h-2v-2zM17.313 15.313h3.375q0.563 0 0.938-0.375t0.375-0.938v-2q0-0.563-0.375-0.938t-0.938-0.375h-2.688v-1.375h4v-2h-4.688q-0.563 0-0.938 0.406t-0.375 0.969v5.313q0 0.563 0.375 0.938t0.938 0.375zM13.313 7.313h-4v2h2v6h2v-8zM20.688 24.688v-2h2.625q0.563 0 0.969-0.406t0.406-0.969v-3.313q0-0.563-0.406-0.938t-0.969-0.375h-4.625v8h2zM16 24.688v-6.688q0-0.563-0.375-0.938t-0.938-0.375h-6q-0.563 0-0.969 0.375t-0.406 0.938v6.688h2v-6h1.375v4h2v-4h1.313v6h2zM25.313 4q1.063 0 1.875 0.813t0.813 1.875v18.625q0 1.063-0.813 1.875t-1.875 0.813h-18.625q-1.063 0-1.875-0.813t-0.813-1.875v-18.625q0-1.063 0.813-1.875t1.875-0.813h18.625zM18 12h2v2h-2v-2z"></path>
</svg>
