<!-- Generated by IcoMoon.io -->
<svg version="1.1" xmlns="http://www.w3.org/2000/svg" width="32" height="32" viewBox="0 0 32 32">
<title>panorama</title>
<path d="M11.313 16.688l-4.625 6h18.625l-6-8-4.625 6zM30.688 24q0 1.063-0.813 1.875t-1.875 0.813h-24q-1.063 0-1.875-0.813t-0.813-1.875v-16q0-1.063 0.813-1.875t1.875-0.813h24q1.063 0 1.875 0.813t0.813 1.875v16z"></path>
</svg>
