<!-- Generated by IcoMoon.io -->
<svg version="1.1" xmlns="http://www.w3.org/2000/svg" width="32" height="32" viewBox="0 0 32 32">
<title>pie_chart_outlined</title>
<path d="M17.313 26.563q3.375-0.438 6.094-3.156t3.156-6.094h-9.25v9.25zM5.313 16q0 4.063 2.688 7.063t6.688 3.5v-21.125q-3.938 0.5-6.656 3.5t-2.719 7.063zM17.313 5.438v9.25h9.25q-0.438-3.625-3.031-6.219t-6.219-3.031zM16 2.688q5.5 0 9.406 3.906t3.906 9.406-3.906 9.406-9.406 3.906-9.406-3.906-3.906-9.406 3.906-9.406 9.406-3.906z"></path>
</svg>
