<!-- Generated by IcoMoon.io -->
<svg version="1.1" xmlns="http://www.w3.org/2000/svg" width="32" height="32" viewBox="0 0 32 32">
<title>present_to_all</title>
<path d="M13.313 16h-2.625l5.313-5.313 5.313 5.313h-2.625v5.313h-5.375v-5.313zM28 25.375v-18.75h-24v18.75h24zM28 4q1.125 0 1.906 0.781t0.781 1.906v18.625q0 1.125-0.781 1.906t-1.906 0.781h-24q-1.125 0-1.906-0.781t-0.781-1.906v-18.625q0-1.125 0.781-1.906t1.906-0.781h24z"></path>
</svg>
