<!-- Generated by IcoMoon.io -->
<svg version="1.1" xmlns="http://www.w3.org/2000/svg" width="32" height="32" viewBox="0 0 32 32">
<title>queue_music</title>
<path d="M22.688 8h6.625v2.688h-4v12q0 1.625-1.188 2.813t-2.813 1.188-2.813-1.188-1.188-2.813 1.188-2.813 2.813-1.188q0.5 0 1.375 0.25v-10.938zM4 21.313v-2.625h10.688v2.625h-10.688zM20 13.313v2.688h-16v-2.688h16zM20 8v2.688h-16v-2.688h16z"></path>
</svg>
