<!-- Generated by IcoMoon.io -->
<svg version="1.1" xmlns="http://www.w3.org/2000/svg" width="32" height="32" viewBox="0 0 32 32">
<title>rate_review</title>
<path d="M24 18.688v-2.688h-7.313l-2.688 2.688h10zM8 18.688h3.313l9.188-9.188q0.5-0.5 0-0.938l-2.375-2.375q-0.5-0.438-0.938 0l-9.188 9.188v3.313zM26.688 2.688q1.063 0 1.844 0.781t0.781 1.844v16q0 1.063-0.781 1.875t-1.844 0.813h-18.688l-5.313 5.313v-24q0-1.063 0.781-1.844t1.844-0.781h21.375z"></path>
</svg>
