<!-- Generated by IcoMoon.io -->
<svg version="1.1" xmlns="http://www.w3.org/2000/svg" width="32" height="32" viewBox="0 0 32 32">
<title>replay</title>
<path d="M16 6.688q4.438 0 7.563 3.125t3.125 7.5q0 4.438-3.156 7.563t-7.531 3.125-7.531-3.125-3.156-7.563h2.688q0 3.313 2.344 5.656t5.656 2.344 5.656-2.344 2.344-5.656-2.344-5.656-5.656-2.344v5.375l-6.688-6.688 6.688-6.688v5.375z"></path>
</svg>
