<!-- Generated by IcoMoon.io -->
<svg version="1.1" xmlns="http://www.w3.org/2000/svg" width="32" height="32" viewBox="0 0 32 32">
<title>rtt</title>
<path d="M11.938 17.313l-0.438 2.688h-8l0.438-2.688h8zM11.063 22.688l-0.375 2.625h-8l0.375-2.625h8zM9.875 12l-0.438 2.688h-5.313l0.375-2.688h5.375zM10.688 6.688l-0.438 2.625h-5.313l0.375-2.625h5.375zM12.063 4h17.25l-1.438 9.438h-3.563l0.938-6h-3.438l-2.625 17.125h3.125l-0.563 3.438h-9.688l0.563-3.438h3.125l2.688-17.125h-3.438l-0.938 6h-3.5z"></path>
</svg>
