<!-- Generated by IcoMoon.io -->
<svg version="1.1" xmlns="http://www.w3.org/2000/svg" width="32" height="32" viewBox="0 0 32 32">
<title>schedule_send</title>
<path d="M21.313 28q2.75 0 4.719-1.969t1.969-4.719-1.969-4.719-4.719-1.969q-2.688 0-4.656 1.938t-1.969 4.688v0.125q0 2.75 1.938 4.688t4.688 1.938zM21.313 12q3.875 0 6.625 2.75t2.75 6.563-2.781 6.594-6.594 2.781q-3.188 0-5.656-1.906t-3.281-4.906l-9.688 4.125v-9.313l12-2.688-12-2.688v-9.313zM22 16.688v4.313l3 2-1 1.688-4-2.688v-5.313h2z"></path>
</svg>
