<!-- Generated by IcoMoon.io -->
<svg version="1.1" xmlns="http://www.w3.org/2000/svg" width="32" height="32" viewBox="0 0 32 32">
<title>screen_rotation</title>
<path d="M10 28.625l1.813-1.75 5.063 5.063-0.875 0.063q-6.25 0-10.844-4.25t-5.094-10.438h2q0.313 3.313 2.625 6.625t5.313 4.688zM19.75 28.25l8.5-8.5-16-16-8.5 8.5zM13.625 2.313l16.063 16.063q0.625 0.563 0.625 1.375t-0.625 1.438l-8.5 8.5q-0.563 0.625-1.375 0.625t-1.438-0.625l-16.063-16.063q-0.563-0.563-0.563-1.375 0-0.875 0.563-1.438l8.5-8.5q0.563-0.563 1.438-0.563 0.813 0 1.375 0.563zM22 3.375l-1.813 1.75-5.063-5.063 0.875-0.063q6.25 0 10.844 4.25t5.094 10.438h-2q-0.375-3.75-2.5-6.75t-5.438-4.563z"></path>
</svg>
