<!-- Generated by IcoMoon.io -->
<svg version="1.1" xmlns="http://www.w3.org/2000/svg" width="32" height="32" viewBox="0 0 32 32">
<title>select_all</title>
<path d="M12 12v8h8v-8h-8zM9.313 22.688v-13.375h13.375v13.375h-13.375zM20 6.688v-2.688h2.688v2.688h-2.688zM20 28v-2.688h2.688v2.688h-2.688zM25.313 22.688v-2.688h2.688v2.688h-2.688zM25.313 12v-2.688h2.688v2.688h-2.688zM25.313 28v-2.688h2.688q0 1.063-0.813 1.875t-1.875 0.813zM25.313 17.313v-2.625h2.688v2.625h-2.688zM14.688 28v-2.688h2.625v2.688h-2.625zM12 4v2.688h-2.688v-2.688h2.688zM4 22.688v-2.688h2.688v2.688h-2.688zM6.688 28q-1.063 0-1.875-0.813t-0.813-1.875h2.688v2.688zM25.313 4q1.063 0 1.875 0.813t0.813 1.875h-2.688v-2.688zM17.313 4v2.688h-2.625v-2.688h2.625zM4 12v-2.688h2.688v2.688h-2.688zM9.313 28v-2.688h2.688v2.688h-2.688zM4 17.313v-2.625h2.688v2.625h-2.688zM4 6.688q0-1.063 0.813-1.875t1.875-0.813v2.688h-2.688z"></path>
</svg>
