<!-- Generated by IcoMoon.io -->
<svg version="1.1" xmlns="http://www.w3.org/2000/svg" width="32" height="32" viewBox="0 0 32 32">
<title>sentiment_dissatisfied</title>
<path d="M16 22q-1.375 0-2.625 0.688l-0.688-0.75q-0.063-0.063-0.688-0.75 1.75-1.188 4-1.188 2.125 0 4 1.188-0.125 0.063-0.719 0.719t-0.656 0.781q-1.188-0.688-2.625-0.688zM16 26.688q4.375 0 7.531-3.156t3.156-7.531-3.156-7.531-7.531-3.156-7.531 3.156-3.156 7.531 3.156 7.531 7.531 3.156zM16 2.688q5.5 0 9.406 3.906t3.906 9.406-3.906 9.406-9.406 3.906-9.406-3.906-3.906-9.406 3.906-9.406 9.406-3.906zM9.313 12.688q0-0.813 0.594-1.406t1.406-0.594 1.406 0.594 0.594 1.406-0.594 1.406-1.406 0.594-1.406-0.594-0.594-1.406zM18.688 12.688q0-0.813 0.594-1.406t1.406-0.594 1.406 0.594 0.594 1.406-0.594 1.406-1.406 0.594-1.406-0.594-0.594-1.406z"></path>
</svg>
