<!-- Generated by IcoMoon.io -->
<svg version="1.1" xmlns="http://www.w3.org/2000/svg" width="32" height="32" viewBox="0 0 32 32">
<title>speaker_notes</title>
<path d="M24 10.688v-2.688h-10.688v2.688h10.688zM24 14.688v-2.688h-10.688v2.688h10.688zM20 18.688v-2.688h-6.688v2.688h6.688zM10.688 10.688v-2.688h-2.688v2.688h2.688zM10.688 14.688v-2.688h-2.688v2.688h2.688zM10.688 18.688v-2.688h-2.688v2.688h2.688zM26.688 2.688q1.063 0 1.844 0.781t0.781 1.844v16q0 1.063-0.781 1.875t-1.844 0.813h-18.688l-5.313 5.313v-24q0-1.063 0.781-1.844t1.844-0.781h21.375z"></path>
</svg>
