<!-- Generated by IcoMoon.io -->
<svg version="1.1" xmlns="http://www.w3.org/2000/svg" width="32" height="32" viewBox="0 0 32 32">
<title>sports_baseball</title>
<path d="M18.688 16q0 2.875 1.875 5.719t4.5 4.031q-3.875 3.563-9.063 3.563t-9.063-3.563q2.875-1.25 4.625-3.875t1.75-5.875-1.75-5.875-4.625-3.875q3.875-3.563 9.063-3.563t9.063 3.563q-2.875 1.25-4.625 3.875t-1.75 5.875zM26.938 8.375q2.375 3.438 2.375 7.625t-2.375 7.625q-2.438-0.75-4.031-2.875t-1.594-4.75 1.594-4.75 4.031-2.875zM5.063 8.375q2.438 0.75 4.031 2.875t1.594 4.75-1.594 4.75-4.031 2.875q-2.375-3.438-2.375-7.625t2.375-7.625z"></path>
</svg>
