<!-- Generated by IcoMoon.io -->
<svg version="1.1" xmlns="http://www.w3.org/2000/svg" width="32" height="32" viewBox="0 0 32 32">
<title>sports_mma</title>
<path d="M20 13.313v-4h-10.688v4h10.688zM24 9.313q0.563 0 0.938 0.406t0.375 0.969v3.688q0 0.375-0.063 0.563l-1.063 5.313q-0.25 1.063-1.25 1.063h-13.875q-1.063 0-1.25-1.063l-1.063-5.313q-0.063-0.188-0.063-0.563v-7.688q0-1.063 0.781-1.875t1.844-0.813h10.688q1.063 0 1.875 0.813t0.813 1.875v4q0-0.563 0.375-0.969t0.938-0.406zM9.313 26.688v-4h13.375v4q0 0.563-0.406 0.938t-0.969 0.375h-10.625q-0.563 0-0.969-0.375t-0.406-0.938z"></path>
</svg>
