<!-- Generated by IcoMoon.io -->
<svg version="1.1" xmlns="http://www.w3.org/2000/svg" width="32" height="32" viewBox="0 0 32 32">
<title>star_outline</title>
<path d="M16 20.563l5 3-1.313-5.688 4.438-3.875-5.875-0.5-2.25-5.375-2.25 5.375-5.875 0.5 4.438 3.875-1.313 5.688zM29.313 12.313l-7.25 6.313 2.188 9.375-8.25-5-8.25 5 2.188-9.375-7.25-6.313 9.563-0.813 3.75-8.813 3.75 8.813z"></path>
</svg>
