<!-- Generated by IcoMoon.io -->
<svg version="1.1" xmlns="http://www.w3.org/2000/svg" width="32" height="32" viewBox="0 0 32 32">
<title>supervised_user_circle</title>
<path d="M16 26.688q3.313 0 6.031-1.906t3.906-4.906q-1.875-1.5-5.125-1.5-1.813 0-3.844 0.781t-2.031 2.031v5.438q0.375 0.063 1.063 0.063zM12.813 21.188q0-2.188 2.5-3.563-1.563-0.313-2.5-0.313-1.688 0-3.813 0.594t-3.063 1.656q0.875 2.375 2.688 4.125t4.188 2.5v-5zM12.813 9q-1.313 0-2.25 0.938t-0.938 2.25 0.938 2.219 2.25 0.906 2.219-0.906 0.906-2.219-0.906-2.25-2.219-0.938zM20.813 11.125q-1.063 0-1.813 0.75t-0.75 1.813 0.75 1.813 1.813 0.75 1.813-0.75 0.75-1.813-0.75-1.813-1.813-0.75zM16 2.688q5.5 0 9.406 3.906t3.906 9.406-3.906 9.406-9.406 3.906q-5.563 0-9.469-3.906t-3.906-9.406 3.906-9.406 9.469-3.906z"></path>
</svg>
