<!-- Generated by IcoMoon.io -->
<svg version="1.1" xmlns="http://www.w3.org/2000/svg" width="32" height="32" viewBox="0 0 32 32">
<title>swipe</title>
<path d="M26.813 5.188l2.5-2.5v6.625h-6.625l2.75-2.75q-1.063-1.375-3.625-2.313t-5.813-0.938-5.813 0.938-3.625 2.313l2.75 2.75h-6.625v-6.625l2.5 2.5q1.5-1.75 4.406-2.813t6.406-1.063 6.406 1.063 4.406 2.813zM26.313 21.688v0.25l-1 7q-0.125 0.75-0.656 1.25t-1.281 0.5h-9.063q-0.75 0-1.375-0.625l-6.625-6.563 1.063-1.063q0.438-0.438 1.063-0.438h0.313l4.563 1v-14.313q0-0.813 0.594-1.406t1.406-0.594 1.406 0.594 0.594 1.406v8h1.063q0.188 0 0.688 0.125l6.063 3q1.188 0.563 1.188 1.875z"></path>
</svg>
