<!-- Generated by IcoMoon.io -->
<svg version="1.1" xmlns="http://www.w3.org/2000/svg" width="32" height="32" viewBox="0 0 32 32">
<title>table_chart</title>
<path d="M4 25.313v-12h6.688v14.688h-4q-1.063 0-1.875-0.813t-0.813-1.875zM26.688 4q1.063 0 1.844 0.813t0.781 1.875v4h-25.313v-4q0-1.063 0.813-1.875t1.875-0.813h20zM22.688 28v-14.688h6.625v12q0 1.063-0.781 1.875t-1.844 0.813h-4zM13.313 13.375h6.688v14.625h-6.688v-14.625z"></path>
</svg>
