<!-- Generated by IcoMoon.io -->
<svg version="1.1" xmlns="http://www.w3.org/2000/svg" width="32" height="32" viewBox="0 0 32 32">
<title>tag</title>
<path d="M18.688 18.688v-5.375h-5.375v5.375h5.375zM26.688 13.313h-5.375v5.375h5.375v2.625h-5.375v5.375h-2.625v-5.375h-5.375v5.375h-2.625v-5.375h-5.375v-2.625h5.375v-5.375h-5.375v-2.625h5.375v-5.375h2.625v5.375h5.375v-5.375h2.625v5.375h5.375v2.625z"></path>
</svg>
