<!-- Generated by IcoMoon.io -->
<svg version="1.1" xmlns="http://www.w3.org/2000/svg" width="32" height="32" viewBox="0 0 32 32">
<title>text_rotation_angledown</title>
<path d="M19 28h-5.625l1.875-1.875-11.813-11.813 1.938-1.875 11.75 11.813 1.875-1.875v5.625zM16.813 10.688l3.5 3.5 2.938-6.5zM25.875 6.563l-5.938 14.813-1.938-1.938 1.188-2.938-4.688-4.75-2.938 1.25-1.938-2 14.813-5.875z"></path>
</svg>
