<!-- Generated by IcoMoon.io -->
<svg version="1.1" xmlns="http://www.w3.org/2000/svg" width="32" height="32" viewBox="0 0 32 32">
<title>text_rotate_vertical</title>
<path d="M8 26.313l-4-4h2.688v-16.625h2.625v16.625h2.688zM17.5 16h5l-2.5-6.688zM21 6.688l6.313 14.625h-2.75l-1.25-2.938h-6.625l-1.25 2.938h-2.75l6.313-14.625h2z"></path>
</svg>
