<!-- Generated by IcoMoon.io -->
<svg version="1.1" xmlns="http://www.w3.org/2000/svg" width="32" height="32" viewBox="0 0 32 32">
<title>thumb_down</title>
<path d="M25.313 4h5.375v16h-5.375v-16zM20 4q1.063 0 1.875 0.813t0.813 1.875v13.313q0 1.063-0.813 1.875l-8.75 8.813-1.438-1.438q-0.563-0.563-0.563-1.375v-0.438l1.313-6.125h-8.438q-1.063 0-1.875-0.781t-0.813-1.844v-2.688q0-0.5 0.188-1l4.063-9.375q0.625-1.625 2.438-1.625h12z"></path>
</svg>
