<!-- Generated by IcoMoon.io -->
<svg version="1.1" xmlns="http://www.w3.org/2000/svg" width="32" height="32" viewBox="0 0 32 32">
<title>voice_chat</title>
<path d="M24 18.688v-10.688l-5.313 4.25v-4.25h-10.688v10.688h10.688v-4.313zM26.688 2.688q1.063 0 1.844 0.781t0.781 1.844v16q0 1.063-0.781 1.875t-1.844 0.813h-18.688l-5.313 5.313v-24q0-1.063 0.781-1.844t1.844-0.781h21.375z"></path>
</svg>
